Rowley_Mid-Term
…
td <- td %>%
  janitor::clean_names()

td

## # A tibble: 90,576 x 7
##    academic_year district   school         student_group grade_level level     n
##    <chr>         <chr>      <chr>          <chr>         <chr>       <chr> <dbl>
##  1 2014-2015     Adrian SD Adrian Elemen Hispanic/Lat Grade 3     4         1
##  2 2014-2015     Adrian SD Adrian Elemen Hispanic/Lat Grade 3     3         2
##  3 2014-2015     Adrian SD Adrian Elemen Hispanic/Lat Grade 3     2         1
##  4 2014-2015     Adrian SD Adrian Elemen Hispanic/Lat Grade 3     1         2
##  5 2014-2015     Adrian SD Adrian Elemen Hispanic/Lat Grade 6     4         0
##  6 2014-2015     Adrian SD Adrian Elemen Hispanic/Lat Grade 6     3         2
##  7 2014-2015     Adrian SD Adrian Elemen Hispanic/Lat Grade 6     2         3
##  8 2014-2015     Adrian SD Adrian Elemen Hispanic/Lat Grade 6     1         2
##  9 2014-2015     Adrian SD Adrian Elemen Hispanic/Lat Grade 7     4         0
## 10 2014-2015     Adrian SD Adrian Elemen Hispanic/Lat Grade 7     3         2
## #  with 90,566 more rows
…
# Number of rows.
pd %>% count(district)

## # A tibble: 100 x 2
##    district                  n
##    <chr>                 <int>
##  1 Adrian SD 61              4
##  2 Amity SD 4J               4
##  3 Annex SD 29               1
##  4 Ashland SD 5              4
##  5 Astoria SD 1              4
##  6 Athena-Weston SD 29RJ     4
##  7 Baker SD 5J               4
##  8 Bandon SD 54              4
##  9 Banks SD 13               4
## 10 Beaverton SD 48J          4
## #  with 90 more rows
…
# Nest data to loop through lists for all plots.
pd2 %>%
    group_by(district, label) %>%
    nest()

## # A tibble: 100 x 3
## # Groups:   district, label [100]
##    district              label                               data            
##    <chr>                 <glue>                              <list>          
##  1 Adrian SD 61          Note. District included 2 schools.  <tibble [4  5]>
##  2 Amity SD 4J           Note. District included 3 schools.  <tibble [4  5]>
##  3 Annex SD 29           Note. District included 1 schools.  <tibble [1  5]>
##  4 Ashland SD 5          Note. District included 6 schools.  <tibble [4  5]>
##  5 Astoria SD 1          Note. District included 3 schools.  <tibble [4  5]>
##  6 Athena-Weston SD 29RJ Note. District included 3 schools.  <tibble [4  5]>
##  7 Baker SD 5J           Note. District included 8 schools.  <tibble [4  5]>
##  8 Bandon SD 54          Note. District included 3 schools.  <tibble [4  5]>
##  9 Banks SD 13           Note. District included 4 schools.  <tibble [4  5]>
## 10 Beaverton SD 48J      Note. District included 54 schools. <tibble [4  5]>
## #  with 90 more rows
…
