EDLD 610: Functional Programming Midterm
…
td <- data %>% 
  pivot_longer(contains("number_level"), 
  names_to = "level", 
  values_to = "n") %>%  
  mutate(level = str_extract(level, "[0-9]")) %>% 
  select(academic_year, district, school, student_group, grade_level, level, n) %>% 
  filter(student_group == "Hispanic/Latino" |
           student_group == "White") %>% 
  drop_na()
  
td

## # A tibble: 90,576 x 7
##    academic_year district   school         student_group grade_level level     n
##    <chr>         <chr>      <chr>          <chr>         <chr>       <chr> <dbl>
##  1 2014-2015     Adrian SD~ Adrian Elemen~ Hispanic/Lat~ Grade 3     4         1
##  2 2014-2015     Adrian SD~ Adrian Elemen~ Hispanic/Lat~ Grade 3     3         2
##  3 2014-2015     Adrian SD~ Adrian Elemen~ Hispanic/Lat~ Grade 3     2         1
##  4 2014-2015     Adrian SD~ Adrian Elemen~ Hispanic/Lat~ Grade 3     1         2
##  5 2014-2015     Adrian SD~ Adrian Elemen~ Hispanic/Lat~ Grade 6     4         0
##  6 2014-2015     Adrian SD~ Adrian Elemen~ Hispanic/Lat~ Grade 6     3         2
##  7 2014-2015     Adrian SD~ Adrian Elemen~ Hispanic/Lat~ Grade 6     2         3
##  8 2014-2015     Adrian SD~ Adrian Elemen~ Hispanic/Lat~ Grade 6     1         2
##  9 2014-2015     Adrian SD~ Adrian Elemen~ Hispanic/Lat~ Grade 7     4         0
## 10 2014-2015     Adrian SD~ Adrian Elemen~ Hispanic/Lat~ Grade 7     3         2
## # ... with 90,566 more rows
…
#join the 2 df together, drop NA, re-order the columns
td2 <- left_join(students, unique_school) %>% 
  drop_na() %>% 
  select(academic_year, district, n_schools, level, hispanic_latino, white)

## Joining, by = "district"

td2

## # A tibble: 1,948 x 6
##    academic_year district     n_schools level hispanic_latino white
##    <chr>         <chr>            <int> <chr>           <dbl> <dbl>
##  1 2014-2015     Adrian SD 61         2 1                   6     8
##  2 2014-2015     Adrian SD 61         2 2                   6    17
##  3 2014-2015     Adrian SD 61         2 3                   6    23
##  4 2014-2015     Adrian SD 61         2 4                   1    22
##  5 2015-2016     Adrian SD 61         2 1                   5     4
##  6 2015-2016     Adrian SD 61         2 2                   3    15
##  7 2015-2016     Adrian SD 61         2 3                   5    39
##  8 2015-2016     Adrian SD 61         2 4                   0    36
##  9 2016-2017     Adrian SD 61         2 1                   2     4
## 10 2016-2017     Adrian SD 61         2 2                   0    19
## # ... with 1,938 more rows
…
1. (10 points) Estimate an achievement gap effect size for every school district in the state that reported data on both student groups (i.e., using the data we created above), for each academic year. Note, on my computer this took about 38 seconds. It will likely take a bit longer for you, but shouldnt take too long. You may get a warning. Just go ahead and ignore that for now.

library(gapr)

#nest data by year and district 
by_district <- td2 %>%
    nest(-district, -academic_year, -n_schools)

## Warning: All elements of `...` must be named.
## Did you want `data = c(level, hispanic_latino, white)`?

by_district

## # A tibble: 487 x 4
##    academic_year district     n_schools data            
##    <chr>         <chr>            <int> <list>          
##  1 2014-2015     Adrian SD 61         2 <tibble [4 x 3]>
##  2 2015-2016     Adrian SD 61         2 <tibble [4 x 3]>
##  3 2016-2017     Adrian SD 61         2 <tibble [4 x 3]>
##  4 2017-2018     Adrian SD 61         2 <tibble [4 x 3]>
##  5 2014-2015     Amity SD 4J          3 <tibble [4 x 3]>
##  6 2015-2016     Amity SD 4J          3 <tibble [4 x 3]>
##  7 2016-2017     Amity SD 4J          3 <tibble [4 x 3]>
##  8 2017-2018     Amity SD 4J          3 <tibble [4 x 3]>
##  9 2016-2017     Annex SD 29          1 <tibble [4 x 3]>
## 10 2014-2015     Ashland SD 5         6 <tibble [4 x 3]>
## # ... with 477 more rows
…
#to examine number of rows 
pd %>% count(district)

## # A tibble: 100 x 2
##    district                  n
##    <chr>                 <int>
##  1 Adrian SD 61              4
##  2 Amity SD 4J               4
##  3 Annex SD 29               1
##  4 Ashland SD 5              4
##  5 Astoria SD 1              4
##  6 Athena-Weston SD 29RJ     4
##  7 Baker SD 5J               4
##  8 Bandon SD 54              4
##  9 Banks SD 13               4
## 10 Beaverton SD 48J          4
## # ... with 90 more rows
…
